{
  "name": "BytePen YouTube Channel",
  "description": "My YouTube Channel full of educational videos!",
  "image": "youtube.jpg",
  "developer": {
    "name": "BytePen Studios, LLC",
    "www": "https://www.bytepen.com"
  },
  "urls": {
    "main": "https://www.youtube.com/c/BytePenStudios"
  }
}
